<?xml version="1.0" encoding="utf-8"?>
<!-- Generator: Adobe Illustrator 22.0.1, SVG Export Plug-In . SVG Version: 6.00 Build 0)  -->
<svg version="1.1" id="Layer_1" xmlns="http://www.w3.org/2000/svg" xmlns:xlink="http://www.w3.org/1999/xlink" x="0px" y="0px"
	 viewBox="0 0 28 16" style="enable-background:new 0 0 28 16;" xml:space="preserve">
<style type="text/css">
	.st0{fill:currentColor;}
</style>
<title>Top</title>
<rect x="0" y="12" class="st0" width="4" height="4"/>
<rect x="4" y="8" class="st0" width="4" height="4"/>
<rect x="8" y="4" class="st0" width="4" height="4"/>
<rect x="12" class="st0" width="4" height="4"/>
<rect x="16" y="4" class="st0" width="4" height="4"/>
<rect x="20" y="8" class="st0" width="4" height="4"/>
<rect x="24" y="12" class="st0" width="4" height="4"/>
</svg>
